%YAML 1.1
%TAG !u! tag:unity3d.com,2011:
--- !u!162 &1
EditorUserSettings:
  m_ObjectHideFlags: 0
  serializedVersion: 4
  m_ConfigSettings:
    RecentlyUsedSceneGuid-0:
      value: 0504005e5d010f085d0d0f7241740b44134f1a28752b22612e2a1964bab16d61
      flags: 0
    RecentlyUsedSceneGuid-1:
      value: 5353045f07005d0b0f56552648210b44434e4a7b7c2e70682b2c1f62b7b3366b
      flags: 0
    RecentlyUsedSceneGuid-2:
      value: 07020403010d595e5e59557b43705e4443151c2b7c7074317f704d60e4e36c39
      flags: 0
    RecentlyUsedSceneGuid-3:
      value: 5a04015354020d5a585d0f7016270c44174f4029287877697c7a4c66bab06561
      flags: 0
    RecentlyUsedSceneGuid-4:
      value: 0209510550055b0c0c590e71457b0d444115497d7a2b7663792f4436b5e4656d
      flags: 0
    RecentlyUsedSceneGuid-5:
      value: 50050d5507065c0a5d0b557412250d44414e1e7e7e7f70647b7f4f65e3b1616a
      flags: 0
    RecentlyUsedSceneGuid-6:
      value: 06075153030d58585e5e0f71407a5e4444161d7d287a7061792f1e60e4b6626f
      flags: 0
    RecentlyUsedSceneGuid-7:
      value: 5503065503505c0c0c575524497b0844464e4c73797e7f67287f4b65bbe1353b
      flags: 0
    RecentlyUsedSceneGuid-8:
      value: 06070204550c505d545a547546765d44464f492c747f25602e2b4461b3b5623e
      flags: 0
    RecentlyUsedSceneGuid-9:
      value: 55530c0257025e595c5e0f7b14275d4444154b2b2f7070672c7a4e36e3e2313c
      flags: 0
    RecentlyUsedScenePath-0:
      value: 22424703114646480e0b0227036c4c1313191d157a66333e243d04
      flags: 0
    RecentlyUsedScenePath-1:
      value: 22424703114646480e0b0227036c4c1313191d152129343b283d143de5ae2136ebf32f
      flags: 0
    RecentlyUsedScenePath-2:
      value: 22424703114646480e0b0227036c4c1313191d15383d323f3f201c3facf53a31f6fe
      flags: 0
    RecentlyUsedScenePath-3:
      value: 22424703114646480e0b0227036c4c1313191d157b66333e243d04
      flags: 0
    RecentlyUsedScenePath-4:
      value: 22424703114646480e0b0227036c52111f1927272926337e38271427fb
      flags: 0
    UnityRemoteDevice:
      value: 2d5e5a03
      flags: 0
    vcSharedLogLevel:
      value: 0d5e400f0650
      flags: 0
  m_VCAutomaticAdd: 1
  m_VCDebugCom: 0
  m_VCDebugCmd: 0
  m_VCDebugOut: 0
  m_SemanticMergeMode: 2
  m_DesiredImportWorkerCount: 1
  m_StandbyImportWorkerCount: 1
  m_IdleImportWorkerShutdownDelay: 60000
  m_VCShowFailedCheckout: 1
  m_VCOverwriteFailedCheckoutAssets: 1
  m_VCProjectOverlayIcons: 1
  m_VCHierarchyOverlayIcons: 1
  m_VCOtherOverlayIcons: 1
  m_VCAllowAsyncUpdate: 0
  m_ArtifactGarbageCollection: 1
